Confusion about spread_draws
…
library(tidybayes)

Attaching package: 'tidybayes'

The following objects are masked from 'package:brms':

    dstudent_t, pstudent_t, qstudent_t, rstudent_t

Code

data_long_summarised = readRDS(file = file.path("data","osf_hedge_cwzds","data_long_summarised.Rds"))

data_long_summarised

# A tibble: 428 × 7
     pps session condition     n n_correct  n_go condition_contrast
   <dbl>   <int>     <int> <int>     <int> <dbl>              <dbl>
 1     1       1         0   450       450   449                0.5
 2     1       1         2   150        88    62               -0.5
 3     1       2         0   450       448   448                0.5
 4     1       2         2   150        59    91               -0.5
 5     2       1         0   450       450   449                0.5
 6     2       1         2   150       109    41               -0.5
 7     2       2         0   450       450   449                0.5
 8     2       2         2   150        87    63               -0.5
 9     3       1         0   450       450   449                0.5
10     3       1         2   150       118    32               -0.5
# ℹ 418 more rows
…
